com\mycompany\oop_pertemuan2\Main.class
com\mycompany\oop_pertemuan2\Ranger.class
com\mycompany\oop_pertemuan2\Hero.class
com\mycompany\oop_pertemuan2\Job.class
com\mycompany\oop_pertemuan2\Mage.class
com\mycompany\oop_pertemuan2\Warrior.class
